…
\#Add Labels

``` r
names(Condensed_weights)[names(Condensed_weights) == "VCF0301"] <- "Party Identification of Respondent-7-point Scale"
Condensed_weights
```

    ## # A tibble: 13,718 x 165
    ##    VCF0004 VCF0102 VCF0103 VCF0104 VCF0105a VCF0105b VCF0106 VCF0107 VCF0700
    ##      <dbl> <dbl+l> <dbl+l> <dbl+l> <dbl+lb> <dbl+lb> <dbl+l> <dbl+l> <dbl+l>
    ##  1    2004 4 [4. … 4 [4. … 1 [1. … 1 [1. W… 1 [1. W… 1 [1. … 7 [7. … 1 [1. …
    ##  2    2004 4 [4. … 4 [4. … 1 [1. … 5 [5. H… 3 [3. H… 3 [3. … 3 [3. … 2 [2. …
    ##  3    2004 3 [3. … 3 [3. … 2 [2. … 1 [1. W… 1 [1. W… 1 [1. … 7 [7. … 2 [2. …
    ##  4    2004 6 [6. … 5 [5. … 1 [1. … 2 [2. B… 2 [2. B… 2 [2. … 7 [7. … 2 [2. …
    ##  5    2004 5 [5. … 5 [5. … 2 [2. … 1 [1. W… 1 [1. W… 1 [1. … 7 [7. … 2 [2. …
    ##  6    2004 4 [4. … 4 [4. … 1 [1. … 1 [1. W… 1 [1. W… 1 [1. … 7 [7. … 2 [2. …
    ##  7    2004 4 [4. … 4 [4. … 2 [2. … 1 [1. W… 1 [1. W… 1 [1. … 7 [7. … 2 [2. …
    ##  8    2004 5 [5. … 4 [4. … 2 [2. … 1 [1. W… 1 [1. W… 1 [1. … 7 [7. … 1 [1. …
    ##  9    2004 4 [4. … 4 [4. … 1 [1. … 2 [2. B… 2 [2. B… 2 [2. … 7 [7. … 1 [1. …
    ## 10    2004 4 [4. … 4 [4. … 2 [2. … 1 [1. W… 1 [1. W… 1 [1. … 7 [7. … 2 [2. …
    ## # … with 13,708 more rows, and 156 more variables: VCF0201 <dbl+lbl>,
    ## #   VCF0202 <dbl+lbl>, `Party Identification of Respondent-7-point
    ## #   Scale` <dbl+lbl>, VCF0303 <dbl+lbl>, VCF0314 <dbl+lbl>, VCF0315 <dbl+lbl>,
    ## #   VCF0323 <dbl+lbl>, VCF0501 <dbl+lbl>, VCF9008 <dbl+lbl>, VCF9010 <dbl+lbl>,
    ## #   VCF9011 <dbl+lbl>, VCF9012 <dbl+lbl>, VCF9201 <dbl+lbl>, VCF9202 <dbl+lbl>,
    ## #   VCF9203 <dbl+lbl>, VCF9204 <dbl+lbl>, VCF9206 <dbl+lbl>, VCF0350 <dbl+lbl>,
    ## #   VCF0351 <dbl+lbl>, VCF0352 <dbl+lbl>, VCF0353 <dbl+lbl>, VCF0354 <dbl+lbl>,
    ## #   VCF0355 <dbl+lbl>, VCF0356 <dbl+lbl>, VCF0357 <dbl+lbl>, VCF0358 <dbl+lbl>,
    ## #   VCF0363 <dbl+lbl>, VCF0364 <dbl+lbl>, VCF0365 <dbl+lbl>, VCF0366 <dbl+lbl>,
…
