…
# BARCHARTS\!

``` r
# Weighting survey Data  
Data_svy <- as_survey_design(Data_Final_REG, weights = Weights)
augment(reg_wsr, data = Data_Final_REG) %>% 
  select(Contacted_Dem_Party_DV, Rep_Pres_Proud_DV)
```

    ## # A tibble: 11,215 x 2
    ##    Contacted_Dem_Party_DV Rep_Pres_Proud_DV
    ##    <fct>                  <fct>            
    ##  1 2                      2                
    ##  2 1                      1                
    ##  3 2                      1                
    ##  4 2                      2                
    ##  5 2                      1                
    ##  6 2                      1                
    ##  7 2                      1                
    ##  8 2                      1                
    ##  9 1                      1                
    ## 10 2                      1                
    ## # … with 11,205 more rows
…
